<?xml version="1.0" encoding="UTF-8"?>
<svg width="222px" height="222px" viewBox="0 0 222 222" version="1.1" xmlns="http://www.w3.org/2000/svg" xmlns:xlink="http://www.w3.org/1999/xlink">
    <!-- Generator: Sketch 47.1 (45422) - http://www.bohemiancoding.com/sketch -->
    <title>Group 8</title>
    <desc>Created with Sketch.</desc>
    <defs>
        <circle id="path-1" cx="110" cy="110" r="95"></circle>
    </defs>
    <g id="Welcome" stroke="none" stroke-width="1" fill="none" fill-rule="evenodd">
        <g id="Partner's-programm" transform="translate(-1269.000000, -5668.000000)">
            <g id="Ad-materials" transform="translate(0.000000, 4827.000000)">
                <g id="Social-networks" transform="translate(1270.000000, 842.000000)">
                    <g id="Group-8">
                        <circle id="Oval" stroke="#FFFFFF" stroke-width="2" cx="110" cy="110" r="110"></circle>
                        <mask id="mask-2" fill="white">
                            <use xlink:href="#path-1"></use>
                        </mask>
                        <use id="Mask" stroke="#FFFFFF" stroke-width="10" fill="#FFFFFF" xlink:href="#path-1"></use>
                        <g id="share" mask="url(#mask-2)">
                            <g transform="translate(70.000000, 70.000000)"></g>
                        </g>
                        <path d="M132.564473,119.954925 C127.262452,119.954925 122.593204,122.716043 119.918968,126.875699 L98.8762151,115.819355 C99.6314839,114.028731 100.049376,112.06228 100.049376,110.000172 C100.049376,107.938065 99.6314839,105.971613 98.8762151,104.180989 L119.918968,93.1246452 C122.593376,97.2843011 127.262452,100.045419 132.564473,100.045419 C140.848,100.045419 147.587097,93.3063226 147.587097,85.0229677 C147.587097,76.7390968 140.848,70 132.564473,70 C124.281118,70 117.542022,76.7390968 117.542022,85.0226237 C117.542022,87.0849032 117.959914,89.0511828 118.715183,90.8418065 L97.6724301,101.898151 C94.9980215,97.7384946 90.3289462,94.9773763 85.0269247,94.9773763 C76.7435699,94.9773763 70.0044731,101.716473 70.0044731,110 C70.0044731,118.283527 76.7435699,125.022624 85.0269247,125.022624 C90.3289462,125.022624 94.9981935,122.261505 97.6724301,118.101849 L118.715183,129.158194 C117.959914,130.948817 117.542022,132.915269 117.542022,134.977376 C117.542022,143.260903 124.281118,150 132.564473,150 C140.848,150 147.587097,143.260903 147.587097,134.977376 C147.587097,126.694022 140.848,119.954925 132.564473,119.954925 Z M132.564473,72.5806452 C139.425032,72.5806452 145.006452,78.1620645 145.006452,85.0226237 C145.006452,91.8830108 139.425032,97.4644301 132.564473,97.4644301 C125.703914,97.4644301 120.122667,91.8830108 120.122667,85.0226237 C120.122495,78.1620645 125.703914,72.5806452 132.564473,72.5806452 Z M85.0267527,122.441978 C78.1663656,122.441978 72.5849462,116.860559 72.5849462,110 C72.5849462,103.139441 78.1663656,97.5580215 85.0267527,97.5580215 C91.8871398,97.5580215 97.4685591,103.139441 97.4685591,110 C97.4685591,116.860559 91.8871398,122.441978 85.0267527,122.441978 Z M132.564473,147.419355 C125.703914,147.419355 120.122667,141.837935 120.122667,134.977376 C120.122667,128.116989 125.703914,122.53557 132.564473,122.53557 C139.425032,122.53557 145.006452,128.116989 145.006452,134.977376 C145.006452,141.837935 139.425032,147.419355 132.564473,147.419355 Z" id="Shape" fill="#404D60" fill-rule="nonzero" mask="url(#mask-2)"></path>
                    </g>
                </g>
            </g>
        </g>
    </g>
</svg>