<?xml version="1.0" encoding="utf-8"?>
<!-- Generator: Adobe Illustrator 16.0.0, SVG Export Plug-In . SVG Version: 6.00 Build 0)  -->
<!DOCTYPE svg PUBLIC "-//W3C//DTD SVG 1.1//EN" "http://www.w3.org/Graphics/SVG/1.1/DTD/svg11.dtd">
<svg version="1.1" id="Layer_1" xmlns="http://www.w3.org/2000/svg" xmlns:xlink="http://www.w3.org/1999/xlink" x="0px" y="0px"
	 width="360px" height="60px" viewBox="0 0 360 60" enable-background="new 0 0 360 60" xml:space="preserve">
<title>screen 3</title>
<desc>Created with Sketch.</desc>
<g id="Welcome">
	<g id="Main-page" transform="translate(-935.000000, -9379.000000)">
		<g id="_x30_51-placeholder" transform="translate(935.000000, 9379.000000)">
			<path id="Shape" fill="#E22B49" d="M42.014,57.446H32.59c1.026-0.985,2.096-1.989,3.202-3.026
				c8.764-8.217,18.697-17.529,18.697-29.41c0-6.664-2.596-12.931-7.309-17.643c-4.713-4.713-10.979-7.309-17.643-7.309
				c-6.665,0-12.931,2.596-17.643,7.309C7.182,12.079,4.587,18.345,4.587,25.01c0,11.881,9.933,21.193,18.697,29.41
				c1.106,1.037,2.176,2.041,3.202,3.026h-9.424c-0.688,0-1.248,0.559-1.248,1.247c0,0.689,0.559,1.248,1.248,1.248h12.474
				c0,0,0.001,0,0.002,0c0,0,0.001,0,0.002,0h12.473c0.688,0,1.247-0.559,1.247-1.248C43.261,58.005,42.702,57.446,42.014,57.446z
				 M29.538,56.932c-1.433-1.412-2.954-2.838-4.547-4.332c-8.395-7.87-17.909-16.79-17.909-27.59c0-5.998,2.336-11.638,6.577-15.879
				s9.88-6.577,15.879-6.577c5.998,0,11.637,2.336,15.879,6.577c4.241,4.241,6.577,9.881,6.576,15.879
				c0.001,10.799-9.514,19.72-17.908,27.59C32.491,54.094,30.971,55.52,29.538,56.932z"/>
			<path id="Shape_1_" fill="#E22B49" d="M41.039,17.631c0.237,0.373,0.642,0.576,1.053,0.576c0.229,0,0.462-0.063,0.67-0.195
				c0.581-0.371,0.751-1.143,0.38-1.723c-0.092-0.145-0.186-0.287-0.282-0.429c-0.389-0.569-1.165-0.716-1.733-0.327
				c-0.569,0.389-0.716,1.165-0.328,1.734C40.88,17.387,40.96,17.509,41.039,17.631z"/>
			<path id="Shape_2_" fill="#E22B49" d="M44.361,31.599c0.059-0.132,0.092-0.271,0.104-0.411c0.812-1.967,1.223-4.043,1.223-6.178
				c0-1.705-0.268-3.391-0.793-5.01c-0.213-0.656-0.917-1.015-1.572-0.802c-0.656,0.213-1.014,0.917-0.801,1.572
				c0.445,1.37,0.67,2.797,0.67,4.239c0,0.997-0.105,1.979-0.316,2.939c-1.316-1.9-3.03-3.508-5.023-4.7
				c0.283-0.79,0.521-1.819,0.755-3.241c0.037-0.227,0.095-0.525,0.161-0.872c0.377-1.969,0.947-4.944,0.364-6.898
				c-1.329-4.449-5.095-7.325-9.593-7.325c-4.34,0-7.998,2.678-9.443,6.863c-2.519,1.783-4.468,4.232-5.638,7.088
				c-0.261,0.639,0.044,1.367,0.682,1.628c0.155,0.063,0.315,0.094,0.473,0.094c0.491,0,0.957-0.292,1.155-0.775
				c0.69-1.686,1.701-3.203,2.972-4.479c0.102,1.349,0.365,2.728,0.572,3.806c0.066,0.346,0.124,0.646,0.161,0.872
				c0.234,1.422,0.472,2.451,0.755,3.241c-2.861,1.712-5.149,4.278-6.51,7.335c-0.144,0.323-0.144,0.691,0,1.015
				c2.604,5.85,8.422,9.629,14.822,9.629c0,0,0,0,0,0C35.939,41.228,41.757,37.448,44.361,31.599z M22.336,12.951
				c1.021-3.419,3.781-5.543,7.202-5.543c3.421,0,6.181,2.124,7.203,5.543c0.409,1.37-0.134,4.196-0.425,5.715
				c-0.069,0.363-0.129,0.678-0.172,0.937c-0.577,3.504-0.855,3.681-2.4,4.664c-0.271,0.173-0.578,0.366-0.92,0.599
				c-1.098,0.626-2.203,0.943-3.286,0.943c-1.083,0-2.188-0.317-3.285-0.943c-0.342-0.231-0.648-0.426-0.919-0.599
				c-1.546-0.983-1.824-1.16-2.401-4.665c-0.042-0.259-0.103-0.572-0.172-0.936c-0.093-0.484-0.211-1.1-0.315-1.759
				c1.376-0.211,3.567-0.631,5.302-1.354l0.277,0.665c0.048,0.114,0.087,0.214,0.122,0.302c0.169,0.433,0.402,1.024,1.087,1.256
				c0.168,0.057,0.327,0.08,0.484,0.08c0.344,0,0.68-0.114,1.071-0.248c0.102-0.034,0.215-0.073,0.345-0.116
				c0.942-0.311,2.289-0.912,3.356-2.013c0.48-0.495,0.469-1.285-0.025-1.765c-0.495-0.479-1.285-0.468-1.765,0.026
				c-0.716,0.737-1.672,1.158-2.349,1.382c-0.023,0.008-0.047,0.016-0.07,0.022l-0.749-1.795c-0.143-0.342-0.43-0.604-0.784-0.713
				c-0.354-0.109-0.739-0.055-1.049,0.147c-1.249,0.814-3.788,1.36-5.508,1.636C22.18,13.854,22.219,13.344,22.336,12.951z
				 M29.538,38.732c-5.229,0-9.999-2.98-12.305-7.641c1.183-2.389,3.046-4.388,5.34-5.742c0.393,0.354,0.858,0.664,1.421,1.022
				c0.267,0.17,0.569,0.362,0.897,0.585l0.076,0.047c1.494,0.863,3.031,1.3,4.57,1.3l0,0c1.54,0,3.077-0.437,4.571-1.3l0.076-0.048
				c0.328-0.222,0.63-0.415,0.896-0.585c0.564-0.357,1.028-0.669,1.422-1.021c2.293,1.354,4.156,3.354,5.34,5.742
				C39.536,35.752,34.767,38.732,29.538,38.732z"/>
			<path id="Shape_3_" fill="#E22B49" d="M15.809,23.66c0.015-0.15,0.032-0.3,0.052-0.449c0.091-0.684-0.39-1.311-1.073-1.4
				c-0.682-0.092-1.31,0.389-1.401,1.072c-0.022,0.166-0.042,0.338-0.061,0.527c-0.069,0.686,0.431,1.297,1.116,1.366
				c0.042,0.004,0.084,0.007,0.126,0.007C15.202,24.783,15.744,24.303,15.809,23.66z"/>
		</g>
	</g>
</g>
<g id="Welcome_1_">
	<g id="Main-page_1_" transform="translate(-1045.000000, -9379.000000)">
		<g id="money" transform="translate(1045.000000, 9379.000000)">
			<path id="Shape_9_" fill="#E22B49" d="M339.994,38.504c-1.418,0-2.572-1.01-2.572-2.254c0-1.242,1.154-2.252,2.572-2.252
				c1.42,0,2.574,1.01,2.574,2.252c0,0.654,0.523,1.184,1.169,1.184s1.169-0.529,1.169-1.184c0-2.168-1.596-3.992-3.742-4.486
				v-0.615c0-0.654-0.523-1.184-1.17-1.184c-0.646,0-1.169,0.529-1.169,1.184v0.615c-2.146,0.494-3.743,2.318-3.743,4.486
				c0,2.549,2.204,4.621,4.912,4.621c1.42,0,2.574,1.012,2.574,2.254s-1.154,2.254-2.574,2.254c-1.418,0-2.572-1.012-2.572-2.254
				c0-0.654-0.523-1.184-1.17-1.184s-1.17,0.529-1.17,1.184c0,2.168,1.598,3.992,3.743,4.486v0.512c0,0.652,0.523,1.184,1.169,1.184
				c0.646,0,1.17-0.531,1.17-1.184v-0.512c2.146-0.494,3.742-2.318,3.742-4.486C344.906,40.576,342.703,38.504,339.994,38.504z"/>
			<path id="Shape_8_" fill="#E22B49" d="M352.805,31.465c-1.527-2.408-3.68-4.336-6.225-5.574
				c-0.582-0.283-1.281-0.035-1.561,0.555c-0.28,0.588-0.035,1.295,0.547,1.578c4.434,2.156,7.299,6.766,7.299,11.74
				c0,2.129-0.519,4.24-1.5,6.105c-0.303,0.576-0.086,1.293,0.484,1.602c0.174,0.094,0.363,0.139,0.548,0.139
				c0.419,0,0.823-0.229,1.034-0.629c1.16-2.205,1.773-4.701,1.773-7.217C355.205,36.811,354.375,33.939,352.805,31.465z"/>
			<path id="Shape_7_" fill="#E22B49" d="M341.833,24.379h-0.079c-0.646,0-1.169,0.529-1.169,1.184s0.523,1.184,1.169,1.184h0.068
				c0.002,0,0.004,0,0.006,0c0.643,0,1.166-0.525,1.169-1.178C343,24.914,342.479,24.383,341.833,24.379z"/>
			<path id="Shape_6_" fill="#E22B49" d="M334.434,51.504c-4.434-2.158-7.299-6.766-7.299-11.74c0-2.129,0.519-4.24,1.5-6.105
				c0.303-0.576,0.086-1.293-0.484-1.6c-0.569-0.309-1.277-0.09-1.581,0.488c-1.161,2.207-1.774,4.701-1.774,7.217
				c0,2.953,0.83,5.824,2.4,8.299c1.527,2.408,3.68,4.336,6.225,5.574c0.164,0.08,0.336,0.117,0.506,0.117
				c0.436,0,0.854-0.248,1.055-0.672C335.261,52.494,335.016,51.787,334.434,51.504z"/>
			<path id="Shape_4_" fill="#E22B49" d="M338.246,52.781h-0.068c-0.648-0.002-1.172,0.523-1.174,1.178
				c-0.004,0.654,0.518,1.186,1.164,1.189h0.078c0.646,0,1.17-0.529,1.17-1.184S338.892,52.781,338.246,52.781z"/>
			<path id="Shape_5_" fill="#E22B49" d="M345.311,20.375c-0.143-0.344-0.316-0.666-0.52-0.967h3.045
				c2.967,0,5.381-2.441,5.381-5.443s-2.414-5.443-5.381-5.443h-9.365c0.595-0.877,0.944-1.936,0.944-3.078
				c0-3-2.413-5.443-5.38-5.443H305.38C302.414,0,300,2.443,300,5.443c0,3.002,2.414,5.445,5.38,5.445h9.366
				c-0.596,0.875-0.945,1.936-0.945,3.076s0.35,2.201,0.945,3.076h-3.051c-2.966,0-5.379,2.443-5.379,5.445
				c0,1.723,0.797,3.262,2.036,4.26c-1.239,0.998-2.036,2.537-2.036,4.26c0,1.725,0.797,3.262,2.036,4.26
				c-1.239,1-2.036,2.537-2.036,4.262c0,1.723,0.797,3.262,2.036,4.26c-1.239,0.998-2.036,2.537-2.036,4.26
				c0,3.002,2.413,5.445,5.379,5.445h13.784c3.632,3.93,8.797,6.391,14.521,6.391c10.964,0,19.883-9.025,19.883-20.119
				C359.883,30.531,353.704,22.732,345.311,20.375z M347.836,10.889c1.678,0,3.041,1.379,3.041,3.076s-1.363,3.076-3.041,3.076
				h-7.484h-21.17c-1.678,0-3.041-1.379-3.041-3.076s1.363-3.076,3.041-3.076H347.836z M305.38,8.521
				c-1.677,0-3.04-1.381-3.04-3.078c0-1.695,1.363-3.076,3.04-3.076h28.655c1.677,0,3.041,1.381,3.041,3.076
				c0,1.697-1.364,3.078-3.041,3.078H305.38z M311.696,19.408h28.656c0.471,0,0.922,0.111,1.326,0.309
				c-0.553-0.047-1.112-0.072-1.678-0.072c-5.49,0-10.469,2.264-14.07,5.918h-14.234c-1.676,0-3.041-1.381-3.041-3.076
				C308.655,20.789,310.02,19.408,311.696,19.408z M311.696,27.93h12.236c-1.328,1.84-2.354,3.916-3.006,6.154h-9.23
				c-1.676,0-3.041-1.381-3.041-3.078C308.655,29.311,310.02,27.93,311.696,27.93z M311.696,36.449h8.693
				c-0.178,1.08-0.271,2.186-0.271,3.314c0,0.965,0.068,1.912,0.199,2.84h-8.621c-1.676,0-3.041-1.381-3.041-3.076
				C308.655,37.83,310.02,36.449,311.696,36.449z M311.696,51.125c-1.676,0-3.041-1.381-3.041-3.078
				c0-1.695,1.365-3.076,3.041-3.076h9.098c0.591,2.227,1.55,4.301,2.807,6.154H311.696z M340,57.516
				c-9.674,0-17.544-7.963-17.544-17.752s7.87-17.752,17.544-17.752s17.544,7.963,17.544,17.752S349.674,57.516,340,57.516z"/>
		</g>
	</g>
</g>
<g id="Welcome_2_">
	<g id="Main-page_2_" transform="translate(-1165.000000, -9379.000000)">
		<g id="_x30_51-like" transform="translate(1165.000000, 9379.000000)">
			<path id="Shape_15_" fill="#E22B49" d="M118.957,22.231c-2.08-7.766-7.035-14.241-13.951-18.233C100.477,1.383,95.315,0,90.083,0
				C79.336,0,69.345,5.741,64.009,14.983c-3.992,6.915-5.045,15-2.964,22.767c2.081,7.766,7.035,14.24,13.95,18.232
				c0.962,0.555,1.953,1.055,2.967,1.498h-0.465c-0.69,0-1.25,0.561-1.25,1.25c0,0.691,0.56,1.25,1.25,1.25h25.01
				c0.691,0,1.25-0.559,1.25-1.25c0-0.689-0.559-1.25-1.25-1.25h-0.559c5.82-2.525,10.795-6.855,14.045-12.484
				C119.985,38.082,121.037,29.996,118.957,22.231z M113.826,43.746c-4.891,8.471-14.053,13.734-23.908,13.734
				c-4.793,0-9.522-1.268-13.673-3.664C63.107,46.23,58.59,29.371,66.175,16.234C71.066,7.763,80.227,2.5,90.083,2.5
				c4.794,0,9.522,1.268,13.673,3.664c6.336,3.658,10.877,9.595,12.785,16.715C118.449,29.998,117.485,37.41,113.826,43.746z"/>
			<path id="Shape_14_" fill="#E22B49" d="M84.175,51.732c-7.743-2.074-13.842-8.174-15.917-15.916
				c-0.179-0.668-0.864-1.063-1.532-0.885c-0.667,0.18-1.063,0.865-0.884,1.531c2.305,8.604,9.082,15.381,17.686,17.686
				c0.108,0.029,0.218,0.043,0.325,0.043c0.552,0,1.058-0.367,1.207-0.926C85.238,52.598,84.842,51.912,84.175,51.732z"/>
			<path id="Shape_13_" fill="#E22B49" d="M96.473,5.832c-0.666-0.18-1.352,0.217-1.531,0.884c-0.178,0.667,0.217,1.353,0.885,1.532
				c7.742,2.074,13.842,8.174,15.918,15.916c0.148,0.559,0.654,0.928,1.207,0.928c0.105,0,0.215-0.014,0.324-0.043
				c0.666-0.18,1.063-0.865,0.883-1.532C111.854,14.914,105.076,8.137,96.473,5.832z"/>
			<path id="Shape_12_" fill="#E22B49" d="M89.253,52.488c-0.313-0.012-0.628-0.027-0.935-0.051c-0.69-0.053-1.29,0.463-1.342,1.152
				s0.464,1.289,1.152,1.342c0.342,0.025,0.692,0.045,1.04,0.057c0.015,0,0.029,0,0.043,0c0.671,0,1.227-0.533,1.249-1.209
				C90.484,53.09,89.944,52.512,89.253,52.488z"/>
			<path id="Shape_11_" fill="#E22B49" d="M90.748,7.492c0.311,0.012,0.627,0.028,0.938,0.051c0.031,0.003,0.063,0.004,0.094,0.004
				c0.648,0,1.197-0.5,1.246-1.158c0.051-0.688-0.467-1.289-1.154-1.34c-0.346-0.025-0.693-0.044-1.039-0.056
				C90.139,4.968,89.564,5.51,89.541,6.2C89.517,6.891,90.057,7.469,90.748,7.492z"/>
			<path id="Shape_10_" fill="#E22B49" d="M102.645,22.893h-6.674c0.535-2.537,0.893-5.23-0.553-7.221
				c-0.969-1.334-2.619-2.121-4.902-2.338c-0.08-0.007-0.162-0.011-0.242-0.011c-1.312,0-2.437,1.022-2.559,2.328
				c-0.427,4.497-1.643,7.017-2.891,8.142c-0.152-0.521-0.631-0.9-1.2-0.9h-7.947c-0.69,0-1.25,0.56-1.25,1.25v16.262
				c0,0.691,0.56,1.25,1.25,1.25h7.947c0.584,0,1.073-0.4,1.211-0.941c0.938,0.609,2.113,0.941,3.468,0.941h13.215
				c1.338,0,2.426-1.031,2.586-2.453l1.445-12.845c0.113-1.009-0.137-1.915-0.707-2.552
				C104.471,23.389,103.787,22.893,102.645,22.893z M82.373,25.737v9.925v3.492h-5.446v-8.76h2.723c0.691,0,1.25-0.56,1.25-1.25
				s-0.56-1.25-1.25-1.25h-2.723v-2.502h5.446V25.737z M103.063,26.076l-1.445,12.846c-0.016,0.145-0.08,0.223-0.096,0.232
				c0,0-0.002,0-0.004,0H88.303c-2.983,0-3.428-2.188-3.428-3.492v-8.983c0.815-0.335,1.824-1.005,2.761-2.339
				c1.355-1.93,2.219-4.773,2.568-8.453c0.003-0.035,0.035-0.063,0.076-0.063c1.539,0.146,2.585,0.589,3.115,1.317
				c0.998,1.374,0.408,4.01-0.113,6.335l-0.088,0.395c-0.082,0.37,0.008,0.758,0.244,1.054c0.238,0.296,0.598,0.468,0.977,0.468
				h8.23c0.162,0,0.289,0.03,0.332,0.078C103.043,25.545,103.098,25.765,103.063,26.076z"/>
		</g>
	</g>
</g>
<g id="Welcome_3_">
	<g id="Main-page_3_" transform="translate(-1285.000000, -9379.000000)">
		<g id="profile" transform="translate(1285.000000, 9379.000000)">
			<path id="Shape_22_" fill="#E22B49" d="M200.575,11.943c0.207,0.127,0.435,0.188,0.66,0.188c0.424,0,0.838-0.215,1.076-0.602
				c0.121-0.197,0.25-0.39,0.383-0.574c1.199-1.661,2.866-2.772,4.82-3.213c0.681-0.154,1.107-0.83,0.954-1.51
				s-0.829-1.106-1.509-0.953c-2.564,0.578-4.747,2.03-6.313,4.199c-0.17,0.234-0.332,0.479-0.486,0.729
				C199.796,10.801,199.982,11.578,200.575,11.943z"/>
			<path id="Shape_21_" fill="#E22B49" d="M210.773,7.601c0.005,0.001,0.018,0.002,0.02,0.003c0.056,0.007,0.109,0.01,0.163,0.01
				c0.623,0,1.159-0.462,1.244-1.096c0.091-0.689-0.397-1.324-1.086-1.418c-0.021-0.003-0.042-0.006-0.063-0.008
				c-0.693-0.073-1.314,0.43-1.388,1.123C209.591,6.903,210.086,7.521,210.773,7.601z"/>
			<path id="Shape_20_" fill="#E22B49" d="M235.491,40.201c-2.922-0.801-5.984-2.1-8.623-3.656c-0.396-0.234-0.888-0.234-1.283,0
				c-0.405,0.238-0.812,0.467-1.22,0.688c-2.174-0.129-3.718-0.711-4.799-2.854c2.614-1.779,3.553-3.219,4.604-9.609
				c0.066-0.398,0.165-0.914,0.279-1.512c0.629-3.279,1.58-8.234,0.644-11.368c-1.085-3.63-3.142-6.659-5.95-8.761
				C216.407,1.082,213.087,0,209.544,0s-6.863,1.082-9.6,3.129c-2.809,2.101-4.866,5.13-5.951,8.76
				c-0.936,3.133,0.016,8.089,0.645,11.368c0.114,0.597,0.213,1.113,0.278,1.513c1.059,6.426,2.001,7.848,4.647,9.639
				c-0.842,1.633-2.725,2.434-5.523,3.51c-2.502,0.961-5.338,2.051-7.563,4.357c-2.563,2.652-3.81,6.404-3.81,11.465
				c0,0.697,0.565,1.262,1.263,1.262h25.614h9.39c0.488,0.646,0.993,1.205,1.476,1.678c2.093,2.051,4.648,3.32,5.816,3.32
				s3.725-1.27,5.817-3.32c1.997-1.957,4.377-5.371,4.377-10.525V41.42C236.421,40.852,236.04,40.352,235.491,40.201z
				 M196.413,12.611c1.858-6.222,6.891-10.087,13.131-10.087c6.241,0,11.273,3.866,13.131,10.087
				c0.338,1.131,0.344,2.703,0.199,4.351c-2.756-0.933-4.233-4.671-4.249-4.712c-0.149-0.392-0.483-0.684-0.892-0.779
				c-0.408-0.095-0.837,0.019-1.145,0.303c-5.912,5.471-16.26,2.246-16.361,2.214c-0.559-0.181-1.168,0.049-1.47,0.552
				c-0.446,0.742-1.535,1.482-2.575,2.029C196.072,15.065,196.102,13.651,196.413,12.611z M197.407,24.359
				c-0.071-0.432-0.173-0.963-0.291-1.578c-0.193-1.007-0.432-2.252-0.627-3.555c1.059-0.478,2.732-1.363,3.836-2.59
				c2.662,0.688,10.76,2.271,16.682-1.955c0.929,1.646,2.744,4.115,5.55,4.82c-0.187,1.202-0.405,2.345-0.585,3.281
				c-0.118,0.613-0.22,1.145-0.291,1.576c-1.048,6.367-1.709,6.787-4.49,8.557c-0.466,0.295-0.992,0.631-1.577,1.025
				c-2.017,1.158-4.058,1.744-6.069,1.744s-4.054-0.588-6.069-1.742c-0.585-0.396-1.111-0.73-1.576-1.027
				c-0.04-0.025-0.079-0.051-0.118-0.074c-0.002-0.002-0.005-0.004-0.008-0.006C199.097,31.133,198.44,30.629,197.407,24.359z
				 M209.544,52.477L209.544,52.477h-24.322c0.416-8.623,5.145-10.443,9.725-12.203c2.647-1.018,5.369-2.064,6.743-4.488
				c0.133,0.088,0.269,0.178,0.407,0.273l0.077,0.047c2.417,1.396,4.896,2.104,7.37,2.104l0,0c2.473,0,4.953-0.707,7.37-2.104
				l0.077-0.049c0.154-0.104,0.304-0.203,0.45-0.301c0.889,1.645,2.021,2.619,3.249,3.197c-1.212,0.482-2.45,0.898-3.729,1.248
				c-0.549,0.15-0.929,0.648-0.929,1.219v4.734c0,0.455,0.02,0.896,0.055,1.324h-7.854c-0.697,0-1.263,0.566-1.263,1.264
				s0.565,1.262,1.263,1.262h8.279c0.232,0.898,0.54,1.723,0.895,2.473H209.544z M226.226,57.471
				c-0.608-0.121-3.482-1.406-5.533-4.326c-0.043-0.08-0.094-0.154-0.152-0.223c-0.799-1.195-1.455-2.652-1.773-4.402
				c-0.003-0.014-0.006-0.027-0.008-0.041c-0.13-0.725-0.203-1.498-0.203-2.324v-3.785c2.324-0.699,4.529-1.604,6.682-2.74
				c0.002,0,0.004-0.002,0.006-0.004c0.329-0.174,0.656-0.352,0.983-0.537c2.414,1.361,5.036,2.482,7.669,3.281v3.785l0,0
				C233.896,54.143,227.195,57.277,226.226,57.471z"/>
			<path id="Shape_19_" fill="#E22B49" d="M229.046,44.811l-4.068,4.07l-1.571-1.572c-0.493-0.492-1.292-0.492-1.785,0
				s-0.493,1.291,0,1.785l2.464,2.463c0.246,0.246,0.569,0.371,0.893,0.371c0.322,0,0.646-0.125,0.893-0.371l4.961-4.961
				c0.492-0.492,0.492-1.291,0-1.785C230.339,44.318,229.539,44.318,229.046,44.811z"/>
			<path id="Shape_18_" fill="#E22B49" d="M204.615,47.48h-0.091c-0.697,0-1.263,0.564-1.263,1.262s0.565,1.262,1.263,1.262h0.091
				c0.697,0,1.263-0.564,1.263-1.262S205.312,47.48,204.615,47.48z"/>
			<path id="Shape_17_" fill="#E22B49" d="M204.484,24.882c0.859,0,1.562-0.702,1.562-1.562c0-0.861-0.702-1.563-1.562-1.563
				c-0.861,0-1.563,0.701-1.563,1.563C202.921,24.18,203.622,24.882,204.484,24.882z"/>
			<path id="Shape_16_" fill="#E22B49" d="M214.607,24.882c0.859,0,1.562-0.702,1.562-1.562c0-0.861-0.702-1.563-1.562-1.563
				c-0.861,0-1.563,0.701-1.563,1.563C213.044,24.18,213.745,24.882,214.607,24.882z"/>
		</g>
	</g>
</g>
<g id="Welcome_4_">
	<g id="Main-page_4_" transform="translate(-1399.000000, -9379.000000)">
		<g id="credit-card" transform="translate(1399.000000, 9379.000000)">
			<path id="Shape_30_" fill="#E22B49" d="M268.784,43.181h-7.174c-0.647,0-1.172,0.524-1.172,1.172s0.524,1.172,1.172,1.172h7.174
				c0.647,0,1.172-0.524,1.172-1.172S269.432,43.181,268.784,43.181z"/>
			<path id="Shape_29_" fill="#E22B49" d="M280.813,43.181h-7.174c-0.646,0-1.172,0.524-1.172,1.172s0.525,1.172,1.172,1.172h7.174
				c0.647,0,1.172-0.524,1.172-1.172S281.46,43.181,280.813,43.181z"/>
			<path id="Shape_28_" fill="#E22B49" d="M293.008,43.181h-7.174c-0.647,0-1.172,0.524-1.172,1.172s0.524,1.172,1.172,1.172h7.174
				c0.646,0,1.172-0.524,1.172-1.172S293.655,43.181,293.008,43.181z"/>
			<path id="Shape_27_" fill="#E22B49" d="M290.692,47.224c-0.764,0-1.484,0.19-2.119,0.523c-0.634-0.333-1.354-0.523-2.119-0.523
				c-2.52,0-4.57,2.05-4.57,4.571c0,2.52,2.051,4.57,4.57,4.57c0.765,0,1.486-0.19,2.119-0.523c0.635,0.333,1.355,0.523,2.119,0.523
				c2.521,0,4.57-2.051,4.57-4.57C295.262,49.273,293.212,47.224,290.692,47.224z M286.696,54.008
				c-0.08,0.008-0.16,0.014-0.242,0.014c-1.228,0-2.227-0.999-2.227-2.227c0-1.229,0.999-2.227,2.227-2.227
				c0.082,0,0.162,0.004,0.242,0.014c-0.365,0.656-0.574,1.41-0.574,2.213C286.121,52.597,286.33,53.352,286.696,54.008z
				 M288.573,52.475c-0.068-0.215-0.107-0.443-0.107-0.68c0-0.238,0.039-0.467,0.107-0.682c0.07,0.215,0.107,0.443,0.107,0.682
				C288.68,52.031,288.642,52.26,288.573,52.475z M290.692,54.021c-0.081,0-0.162-0.006-0.24-0.014
				c0.364-0.656,0.572-1.411,0.572-2.213c0-0.803-0.208-1.557-0.572-2.213c0.078-0.009,0.159-0.014,0.24-0.014
				c1.229,0,2.227,0.998,2.227,2.227C292.919,53.022,291.92,54.021,290.692,54.021z"/>
			<path id="Shape_26_" fill="#E22B49" d="M270,32.816h-8.438c-0.646,0-1.172,0.525-1.172,1.172v5.387
				c0,0.646,0.525,1.172,1.172,1.172H270c0.647,0,1.172-0.525,1.172-1.172v-5.387C271.172,33.342,270.648,32.816,270,32.816z
				 M268.828,38.203h-6.094V35.16h6.094V38.203z"/>
			<path id="Shape_25_" fill="#E22B49" d="M270.125,57.656h-0.015c-0.647,0-1.172,0.525-1.172,1.172S269.463,60,270.111,60h0.015
				c0.648,0,1.172-0.525,1.172-1.172S270.774,57.656,270.125,57.656z"/>
			<path id="Shape_24_" fill="#E22B49" d="M296.485,28.705h-11.732l5.549-5.549c1.37-1.371,1.37-3.602,0-4.972L273.145,1.027
				c-1.371-1.37-3.602-1.37-4.973,0l-27.145,27.145c-1.37,1.371-1.37,3.602,0,4.972l13.554,13.554v9.787
				c0,1.938,1.577,3.516,3.516,3.516h6.303c0.647,0,1.172-0.525,1.172-1.172c0-0.647-0.524-1.172-1.172-1.172h-6.303
				c-0.646,0-1.172-0.525-1.172-1.172V32.221c0-0.646,0.526-1.172,1.172-1.172h38.388c0.646,0,1.172,0.526,1.172,1.172v24.264
				c0,0.646-0.525,1.172-1.172,1.172H274.83c-0.647,0-1.172,0.524-1.172,1.172c0,0.646,0.524,1.172,1.172,1.172h21.654
				c1.938,0,3.516-1.577,3.516-3.516V32.221C300,30.283,298.423,28.705,296.485,28.705z M242.686,31.486
				c-0.457-0.457-0.457-1.2,0-1.657L269.83,2.686c0.457-0.457,1.199-0.457,1.656,0l1.777,1.777l-28.802,28.801L242.686,31.486z
				 M254.581,43.383l-4.653-4.654l4.653-4.652V43.383L254.581,43.383z M274.433,28.705l2.666-2.666c0.458-0.457,0.458-1.199,0-1.656
				c-0.458-0.458-1.2-0.458-1.657,0l-4.323,4.322h-3.092l6.36-6.36c0.459-0.458,0.459-1.2,0-1.657c-0.457-0.458-1.199-0.458-1.656,0
				l-8.02,8.018h-4.76l12.932-12.932c0.459-0.457,0.459-1.199,0-1.657c-0.457-0.458-1.199-0.458-1.656,0l-22.956,22.956
				l-2.151-2.151l28.802-28.802l13.722,13.723c0.222,0.222,0.344,0.516,0.344,0.828c0,0.313-0.122,0.607-0.344,0.829l-7.206,7.206
				H274.433L274.433,28.705z"/>
			<path id="Shape_23_" fill="#E22B49" d="M276.002,10.999c-0.219-0.218-0.521-0.344-0.83-0.344
				c-0.309,0.001-0.61,0.126-0.827,0.344c-0.22,0.218-0.344,0.521-0.344,0.828c0,0.309,0.124,0.61,0.344,0.829
				c0.217,0.218,0.519,0.343,0.827,0.343c0.31,0,0.611-0.125,0.83-0.343c0.218-0.219,0.344-0.521,0.344-0.829
				C276.346,11.52,276.22,11.217,276.002,10.999z"/>
		</g>
	</g>
</g>
<g id="Welcome_5_">
	<g id="Main-page_5_" transform="translate(-1519.000000, -9379.000000)">
		<g id="route" transform="translate(1519.000000, 9379.000000)">
			<path id="Shape_46_" fill="#E22B49" d="M131.311,0C125.074,0,120,5.074,120,11.311c0,4.187,1.848,8.57,5.344,12.678
				c2.596,3.051,5.17,4.877,5.279,4.953c0.207,0.146,0.447,0.219,0.688,0.219s0.482-0.072,0.688-0.219
				c0.109-0.076,2.684-1.901,5.281-4.953c3.494-4.107,5.342-8.491,5.342-12.678C142.621,5.074,137.547,0,131.311,0z M131.311,26.459
				c-2.203-1.762-8.92-7.743-8.92-15.148c0-4.918,4.002-8.92,8.92-8.92c4.92,0,8.92,4.002,8.92,8.92
				C140.231,18.698,133.51,24.695,131.311,26.459z"/>
			<path id="Shape_45_" fill="#E22B49" d="M131.311,5.675c-3.107,0-5.637,2.528-5.637,5.636s2.529,5.637,5.637,5.637
				s5.637-2.529,5.637-5.637S134.418,5.675,131.311,5.675z M131.311,14.557c-1.789,0-3.246-1.456-3.246-3.246
				c0-1.789,1.457-3.246,3.246-3.246s3.246,1.457,3.246,3.246C134.557,13.101,133.102,14.557,131.311,14.557z"/>
			<path id="Shape_44_" fill="#E22B49" d="M153.024,34.171c-5.543,0-10.053,4.51-10.053,10.052c0,8.867,8.982,15.291,9.365,15.56
				c0.207,0.146,0.447,0.218,0.688,0.218s0.482-0.072,0.688-0.218c0.383-0.269,9.365-6.692,9.365-15.56
				C163.076,38.681,158.567,34.171,153.024,34.171z M153.024,57.295c-2-1.621-7.662-6.769-7.662-13.072
				c0-4.225,3.438-7.661,7.662-7.661s7.662,3.437,7.662,7.661C160.686,50.527,155.024,55.675,153.024,57.295z"/>
			<path id="Shape_43_" fill="#E22B49" d="M153.024,39.14c-2.803,0-5.084,2.28-5.084,5.083c0,2.804,2.281,5.084,5.084,5.084
				s5.084-2.28,5.084-5.084C158.108,41.42,155.826,39.14,153.024,39.14z M153.024,46.916c-1.484,0-2.693-1.208-2.693-2.693
				c0-1.484,1.209-2.693,2.693-2.693s2.693,1.209,2.693,2.693C155.717,45.708,154.508,46.916,153.024,46.916z"/>
			<path id="Shape_42_" fill="#E22B49" d="M160.346,57.609h-0.598c-0.658,0-1.193,0.535-1.193,1.195S159.09,60,159.748,60h0.598
				c0.66,0,1.195-0.535,1.195-1.195S161.006,57.609,160.346,57.609z"/>
			<path id="Shape_41_" fill="#E22B49" d="M167.887,57.258c-0.246-0.613-0.941-0.91-1.555-0.665
				c-0.168,0.068-0.342,0.134-0.516,0.195c-0.621,0.222-0.945,0.905-0.723,1.527c0.174,0.489,0.635,0.794,1.125,0.794
				c0.133,0,0.27-0.022,0.402-0.07c0.201-0.071,0.402-0.148,0.602-0.228C167.836,58.566,168.133,57.87,167.887,57.258z"/>
			<path id="Shape_40_" fill="#E22B49" d="M173.008,53.184c-0.479-0.456-1.234-0.439-1.691,0.037
				c-0.125,0.131-0.256,0.263-0.389,0.391c-0.475,0.459-0.486,1.217-0.027,1.69c0.234,0.242,0.547,0.364,0.859,0.364
				c0.299,0,0.598-0.111,0.83-0.336c0.154-0.15,0.307-0.303,0.453-0.456C173.5,54.396,173.485,53.641,173.008,53.184z"/>
			<path id="Shape_39_" fill="#E22B49" d="M175.992,47.36c-0.623-0.219-1.305,0.109-1.523,0.732
				c-0.061,0.172-0.125,0.346-0.193,0.519c-0.242,0.613,0.059,1.308,0.674,1.55c0.143,0.057,0.291,0.084,0.438,0.084
				c0.477,0,0.926-0.287,1.111-0.757c0.08-0.201,0.156-0.404,0.227-0.605C176.944,48.261,176.615,47.578,175.992,47.36z"/>
			<path id="Shape_38_" fill="#E22B49" d="M177.592,41.909c-0.059-0.657-0.639-1.144-1.295-1.085
				c-0.658,0.057-1.145,0.637-1.086,1.295c0.016,0.182,0.027,0.367,0.037,0.55c0.031,0.64,0.559,1.137,1.193,1.137
				c0.02,0,0.039-0.001,0.059-0.002c0.66-0.032,1.168-0.593,1.135-1.252C177.625,42.338,177.612,42.122,177.592,41.909z"/>
			<path id="Shape_37_" fill="#E22B49" d="M175.809,35.764c-0.098-0.188-0.199-0.379-0.307-0.564
				c-0.324-0.574-1.055-0.776-1.629-0.451c-0.574,0.326-0.775,1.056-0.449,1.63c0.09,0.16,0.178,0.323,0.262,0.483
				c0.213,0.411,0.631,0.646,1.063,0.646c0.186,0,0.373-0.043,0.549-0.133C175.883,37.071,176.112,36.35,175.809,35.764z"/>
			<path id="Shape_36_" fill="#E22B49" d="M171.338,30.344c-0.166-0.131-0.338-0.263-0.514-0.39
				c-0.533-0.389-1.279-0.272-1.67,0.261c-0.389,0.533-0.271,1.281,0.262,1.67c0.148,0.109,0.297,0.221,0.439,0.334
				c0.219,0.174,0.48,0.258,0.74,0.258c0.354,0,0.703-0.155,0.938-0.453C171.944,31.506,171.856,30.754,171.338,30.344z"/>
			<path id="Shape_35_" fill="#E22B49" d="M165.026,27.25c-0.207-0.051-0.418-0.098-0.629-0.142
				c-0.645-0.132-1.277,0.284-1.41,0.931s0.283,1.278,0.93,1.411c0.18,0.037,0.361,0.077,0.537,0.121
				c0.096,0.024,0.193,0.035,0.287,0.035c0.537,0,1.025-0.364,1.16-0.909C166.059,28.057,165.666,27.408,165.026,27.25z"/>
			<path id="Shape_34_" fill="#E22B49" d="M158.203,26.77h-0.598c-0.66,0-1.195,0.535-1.195,1.195s0.535,1.195,1.195,1.195h0.598
				c0.66,0,1.195-0.535,1.195-1.195S158.864,26.77,158.203,26.77z"/>
			<path id="Shape_33_" fill="#E22B49" d="M151.629,26.77h-0.598c-0.66,0-1.195,0.535-1.195,1.195s0.535,1.195,1.195,1.195h0.598
				c0.66,0,1.195-0.535,1.195-1.195S152.289,26.77,151.629,26.77z"/>
			<path id="Shape_32_" fill="#E22B49" d="M145.057,26.77h-0.598c-0.66,0-1.195,0.535-1.195,1.195s0.535,1.195,1.195,1.195h0.598
				c0.66,0,1.195-0.535,1.195-1.195S145.717,26.77,145.057,26.77z"/>
			<path id="Shape_31_" fill="#E22B49" d="M138.483,26.77h-0.598c-0.66,0-1.195,0.535-1.195,1.195s0.535,1.195,1.195,1.195h0.598
				c0.66,0,1.195-0.535,1.195-1.195S139.143,26.77,138.483,26.77z"/>
		</g>
	</g>
</g>
</svg>
