<?xml version="1.0" encoding="utf-8"?>
<!-- Generator: Adobe Illustrator 16.0.0, SVG Export Plug-In . SVG Version: 6.00 Build 0)  -->
<!DOCTYPE svg PUBLIC "-//W3C//DTD SVG 1.1//EN" "http://www.w3.org/Graphics/SVG/1.1/DTD/svg11.dtd">
<svg version="1.1" id="Layer_1" xmlns="http://www.w3.org/2000/svg" xmlns:xlink="http://www.w3.org/1999/xlink" x="0px" y="0px"
	 width="99px" height="22px" viewBox="0 0 99 22" enable-background="new 0 0 99 22" xml:space="preserve">
<g>
	<rect fill="#414953" width="33" height="4"/>
	<rect y="9" fill="#414953" width="33" height="4"/>
	<rect y="18" fill="#414953" width="33" height="4"/>
</g>
<g>
	<rect x="33" fill="#2C3238" width="33" height="4"/>
	<rect x="33" y="9" fill="#2C3238" width="33" height="4"/>
	<rect x="33" y="18" fill="#2C3238" width="33" height="4"/>
</g>
<g>
	<rect x="66" fill="#191C1F" width="33" height="4"/>
	<rect x="66" y="9" fill="#191C1F" width="33" height="4"/>
	<rect x="66" y="18" fill="#191C1F" width="33" height="4"/>
</g>
</svg>
