<?xml version="1.0" encoding="utf-8"?>
<!DOCTYPE svg PUBLIC "-//W3C//DTD SVG 1.1//EN" "http://www.w3.org/Graphics/SVG/1.1/DTD/svg11.dtd">
<svg version="1.1" xmlns="http://www.w3.org/2000/svg" xmlns:xlink="http://www.w3.org/1999/xlink" x="0px" y="0px"
	 width="151px" height="41px" viewBox="84.5 47.108 151 41" enable-background="new 84.5 47.108 151 41" xml:space="preserve">
<path fill="#404852" d="M97.027,57.786c0,1.383-0.18,2.566-0.542,3.548c-0.362,0.983-0.88,1.786-1.556,2.406
	c-0.676,0.621-1.498,1.078-2.465,1.37c-0.967,0.291-2.119,0.437-3.455,0.437h-3.6c-0.257,0-0.473-0.075-0.646-0.227
	c-0.176-0.152-0.263-0.397-0.263-0.741V51.436c0-0.342,0.087-0.589,0.263-0.74c0.174-0.151,0.389-0.228,0.646-0.228h3.868
	c1.344,0,2.484,0.158,3.42,0.473c0.936,0.314,1.725,0.78,2.366,1.398c0.64,0.617,1.127,1.381,1.462,2.289
	C96.859,55.537,97.027,56.591,97.027,57.786z M93.857,57.891c0-0.714-0.083-1.378-0.25-1.992s-0.436-1.146-0.804-1.597
	c-0.369-0.45-0.843-0.802-1.422-1.055c-0.579-0.252-1.337-0.378-2.278-0.378h-1.549v10.253h1.595c0.839,0,1.546-0.107,2.122-0.324
	c0.574-0.218,1.055-0.548,1.439-0.986c0.385-0.439,0.672-0.985,0.862-1.637C93.762,59.522,93.857,58.762,93.857,57.891z
	 M115.735,59.825v5.302c0,0.077-0.025,0.146-0.076,0.21c-0.049,0.063-0.134,0.112-0.249,0.151c-0.117,0.038-0.274,0.07-0.473,0.093
	c-0.197,0.023-0.444,0.034-0.74,0.034c-0.302,0-0.55-0.011-0.745-0.034c-0.194-0.022-0.351-0.055-0.472-0.093
	c-0.121-0.039-0.204-0.089-0.25-0.151c-0.047-0.063-0.07-0.133-0.07-0.21v-5.302l-4.125-8.215c-0.148-0.287-0.242-0.512-0.286-0.67
	c-0.043-0.159-0.02-0.279,0.07-0.361c0.089-0.082,0.253-0.132,0.495-0.151c0.24-0.02,0.575-0.029,1.001-0.029
	c0.358,0,0.644,0.008,0.858,0.023c0.214,0.016,0.382,0.044,0.506,0.088c0.125,0.042,0.216,0.099,0.274,0.168
	c0.059,0.069,0.114,0.159,0.169,0.268l1.678,3.706c0.162,0.357,0.325,0.733,0.483,1.13c0.159,0.396,0.321,0.813,0.484,1.248h0.022
	c0.148-0.421,0.299-0.828,0.454-1.225c0.155-0.396,0.308-0.771,0.455-1.13l1.654-3.682c0.038-0.125,0.087-0.224,0.146-0.297
	c0.058-0.073,0.145-0.134,0.262-0.182c0.116-0.047,0.275-0.077,0.478-0.093c0.203-0.016,0.47-0.023,0.805-0.023
	c0.443,0,0.787,0.01,1.031,0.029s0.411,0.069,0.501,0.151c0.089,0.082,0.11,0.204,0.065,0.367c-0.047,0.163-0.14,0.385-0.281,0.664
	L115.735,59.825z M141.064,64.265c0,0.233-0.011,0.429-0.03,0.589c-0.02,0.159-0.049,0.291-0.088,0.395
	c-0.039,0.107-0.087,0.181-0.146,0.229c-0.057,0.046-0.125,0.068-0.204,0.068h-6.909c-0.256,0-0.471-0.074-0.647-0.227
	c-0.174-0.151-0.262-0.396-0.262-0.74V50.888c0-0.077,0.024-0.147,0.074-0.209c0.051-0.063,0.135-0.113,0.252-0.151
	c0.116-0.039,0.273-0.07,0.471-0.093c0.199-0.024,0.444-0.036,0.741-0.036c0.303,0,0.551,0.012,0.746,0.036
	c0.193,0.022,0.349,0.054,0.465,0.093s0.2,0.089,0.25,0.151c0.051,0.062,0.076,0.132,0.076,0.209v12.131h4.743
	c0.078,0,0.146,0.021,0.204,0.064c0.059,0.043,0.107,0.111,0.146,0.208c0.039,0.099,0.068,0.227,0.088,0.386
	C141.053,63.836,141.064,64.031,141.064,64.265z M157.605,59.825v5.302c0,0.077-0.026,0.146-0.077,0.21
	c-0.05,0.063-0.131,0.112-0.249,0.151c-0.117,0.038-0.274,0.07-0.472,0.093c-0.199,0.023-0.445,0.034-0.741,0.034
	c-0.302,0-0.55-0.011-0.744-0.034c-0.196-0.022-0.354-0.055-0.474-0.093c-0.121-0.039-0.204-0.089-0.25-0.151
	c-0.046-0.063-0.069-0.133-0.069-0.21v-5.302l-4.124-8.215c-0.148-0.287-0.243-0.512-0.286-0.67
	c-0.043-0.159-0.021-0.279,0.069-0.361s0.254-0.132,0.496-0.151c0.241-0.02,0.575-0.029,1.001-0.029
	c0.358,0,0.644,0.008,0.857,0.023s0.383,0.044,0.506,0.088c0.124,0.042,0.215,0.099,0.274,0.168s0.114,0.159,0.17,0.268l1.677,3.706
	c0.163,0.357,0.324,0.733,0.483,1.13c0.158,0.396,0.321,0.813,0.483,1.248h0.025c0.148-0.421,0.298-0.828,0.454-1.225
	c0.155-0.396,0.307-0.771,0.455-1.13l1.653-3.682c0.04-0.125,0.088-0.224,0.147-0.297c0.059-0.073,0.146-0.134,0.262-0.182
	c0.116-0.047,0.275-0.077,0.477-0.093c0.203-0.016,0.47-0.023,0.805-0.023c0.443,0,0.787,0.01,1.03,0.029
	c0.246,0.02,0.412,0.069,0.502,0.151c0.089,0.082,0.111,0.204,0.063,0.367c-0.046,0.163-0.138,0.385-0.277,0.664L157.605,59.825z
	 M210.872,64.347c0,0.226-0.01,0.414-0.029,0.564c-0.021,0.152-0.048,0.274-0.088,0.367c-0.04,0.095-0.088,0.162-0.146,0.205
	c-0.06,0.043-0.122,0.063-0.193,0.063h-7.574c-0.255,0-0.47-0.075-0.646-0.227c-0.175-0.152-0.263-0.397-0.263-0.741V51.436
	c0-0.342,0.088-0.589,0.263-0.74c0.176-0.151,0.391-0.228,0.646-0.228h7.529c0.069,0,0.131,0.021,0.186,0.059
	c0.055,0.039,0.103,0.107,0.141,0.204c0.038,0.098,0.067,0.222,0.088,0.373c0.019,0.151,0.029,0.344,0.029,0.577
	c0,0.217-0.01,0.402-0.029,0.553c-0.021,0.152-0.05,0.274-0.088,0.368c-0.038,0.093-0.086,0.161-0.141,0.203
	c-0.054,0.043-0.116,0.064-0.186,0.064h-5.384v3.683h4.556c0.069,0,0.134,0.021,0.191,0.064c0.06,0.042,0.108,0.108,0.146,0.197
	c0.038,0.09,0.069,0.21,0.088,0.361s0.029,0.336,0.029,0.554c0,0.226-0.01,0.411-0.029,0.559c-0.019,0.147-0.049,0.267-0.088,0.356
	c-0.037,0.088-0.087,0.153-0.146,0.191c-0.058,0.04-0.122,0.059-0.191,0.059h-4.556v4.253h5.43c0.07,0,0.134,0.021,0.193,0.065
	c0.058,0.042,0.104,0.109,0.145,0.203c0.041,0.093,0.067,0.215,0.088,0.367C210.862,63.933,210.872,64.122,210.872,64.347z
	 M235.5,65.15c0,0.086-0.014,0.158-0.045,0.217c-0.031,0.058-0.105,0.105-0.223,0.145c-0.117,0.04-0.288,0.065-0.512,0.082
	c-0.227,0.015-0.534,0.021-0.922,0.021c-0.325,0-0.587-0.008-0.78-0.021c-0.194-0.017-0.347-0.045-0.46-0.088
	c-0.112-0.042-0.191-0.097-0.239-0.163c-0.047-0.066-0.086-0.146-0.117-0.239l-1.351-3.367c-0.164-0.381-0.323-0.718-0.479-1.014
	c-0.156-0.296-0.327-0.542-0.519-0.74c-0.189-0.197-0.409-0.348-0.659-0.448c-0.248-0.101-0.536-0.151-0.861-0.151h-0.956v5.745
	c0,0.077-0.024,0.146-0.075,0.209c-0.05,0.063-0.134,0.113-0.251,0.152c-0.115,0.038-0.271,0.069-0.466,0.092
	c-0.193,0.024-0.441,0.034-0.745,0.034c-0.295,0-0.54-0.01-0.74-0.034c-0.197-0.022-0.355-0.054-0.472-0.092
	c-0.117-0.039-0.198-0.09-0.245-0.152c-0.046-0.063-0.069-0.133-0.069-0.209V51.436c0-0.342,0.088-0.589,0.261-0.74
	c0.177-0.151,0.393-0.228,0.647-0.228h3.904c0.396,0,0.722,0.009,0.978,0.024c0.257,0.015,0.489,0.034,0.699,0.059
	c0.606,0.085,1.151,0.232,1.637,0.442c0.487,0.21,0.898,0.483,1.235,0.821c0.338,0.338,0.597,0.738,0.775,1.2s0.27,0.993,0.27,1.591
	c0,0.504-0.066,0.965-0.193,1.381c-0.129,0.416-0.316,0.786-0.565,1.113c-0.248,0.326-0.556,0.609-0.921,0.851
	c-0.365,0.24-0.779,0.435-1.246,0.582c0.227,0.108,0.437,0.24,0.636,0.396c0.197,0.156,0.385,0.344,0.56,0.565
	c0.174,0.222,0.339,0.475,0.495,0.758c0.154,0.283,0.306,0.604,0.454,0.961l1.271,2.972c0.115,0.295,0.194,0.51,0.233,0.646
	C235.481,64.967,235.5,65.073,235.5,65.15z M231.551,54.92c0-0.497-0.113-0.917-0.338-1.259c-0.226-0.343-0.596-0.582-1.107-0.724
	c-0.155-0.038-0.331-0.068-0.53-0.093c-0.197-0.022-0.471-0.035-0.82-0.035h-1.376v4.277h1.562c0.436,0,0.815-0.053,1.143-0.157
	c0.326-0.106,0.598-0.254,0.816-0.443c0.216-0.189,0.379-0.417,0.489-0.682C231.496,55.541,231.551,55.246,231.551,54.92z
	 M176.639,48.733c-0.336-1.11-1.548-1.726-2.706-1.373l0,0c-1.157,0.352-1.822,1.536-1.484,2.646l4.81,15.821
	c0.336,1.109,1.55,1.725,2.704,1.372l0,0c1.157-0.353,1.824-1.537,1.486-2.646L176.639,48.733z M175.255,68.29
	c-0.428-1.078-1.686-1.591-2.811-1.146l0,0c-1.123,0.445-1.688,1.682-1.262,2.76l3.627,8.805c0.426,1.079,1.686,1.591,2.81,1.146
	l0,0c1.125-0.445,1.689-1.681,1.262-2.758L175.255,68.29z M170.905,71.153c-0.396-0.997-1.629-1.445-2.753-0.999l0,0
	c-1.125,0.446-1.716,1.617-1.319,2.614l2.613,5.858c0.395,0.996,1.628,1.443,2.751,0.998l0,0c1.127-0.446,1.715-1.614,1.32-2.614
	L170.905,71.153z M190.27,51.295c0.3-1.027-0.401-2.135-1.561-2.473l0,0c-1.162-0.338-2.347,0.224-2.645,1.251l-4.26,14.661
	c-0.299,1.027,0.401,2.134,1.563,2.473l0,0c1.161,0.337,2.345-0.223,2.644-1.25L190.27,51.295z M177.299,69.978
	c-0.064,1.179,0.408,2.155,1.848,2.155c1.437,0,2.873,0.052,5.491,0.052c2.617,0,2.259,1.951,1.849,3.438
	c-0.411,1.489-1.9,5.081-2.723,6.672c-0.819,1.592-1.95,1.949-2.718,1.9c-0.771-0.052-7.495-0.052-8.778-0.104
	c-1.282-0.052-1.744,0.926-1.744,2.003c0,1.075,0.513,1.794,1.642,1.794c1.131,0,7.134,0.104,9.444,0.054
	c2.309-0.054,3.49-0.72,4.877-2.619c1.385-1.899,2.821-5.645,3.643-8.314c0.821-2.671,1.078-5.543-1.232-7.288
	c-2.309-1.746-6.825-1.438-8.776-1.489C180.121,68.231,177.399,68.078,177.299,69.978z"/>
</svg>
