<?xml version="1.0" encoding="utf-8"?>
<!-- Generator: Adobe Illustrator 16.0.0, SVG Export Plug-In . SVG Version: 6.00 Build 0)  -->
<!DOCTYPE svg PUBLIC "-//W3C//DTD SVG 1.1//EN" "http://www.w3.org/Graphics/SVG/1.1/DTD/svg11.dtd">
<svg version="1.1" id="Réteg_1" xmlns="http://www.w3.org/2000/svg" xmlns:xlink="http://www.w3.org/1999/xlink" x="0px" y="0px"
	 width="224px" height="65px" viewBox="-14 -6 224 65" enable-background="new -14 -6 224 65" xml:space="preserve">
<path fill="#FFFFFF" d="M4.583,11.93c0,2.051-0.267,3.806-0.804,5.261c-0.537,1.458-1.305,2.649-2.309,3.57
	s-2.222,1.599-3.656,2.032c-1.434,0.431-3.143,0.647-5.125,0.647h-5.339c-0.381,0-0.702-0.113-0.959-0.337
	c-0.261-0.226-0.39-0.588-0.39-1.096V2.509c0-0.508,0.129-0.874,0.39-1.099c0.258-0.225,0.578-0.337,0.959-0.337h5.738
	c1.993,0,3.686,0.236,5.073,0.701c1.387,0.466,2.559,1.159,3.511,2.075c0.95,0.917,1.67,2.049,2.168,3.396
	C4.333,8.593,4.583,10.157,4.583,11.93z M-0.119,12.083c0-1.058-0.124-2.043-0.372-2.954c-0.248-0.912-0.646-1.7-1.192-2.369
	c-0.547-0.667-1.25-1.189-2.108-1.565c-0.858-0.373-1.983-0.56-3.38-0.56h-2.297v15.211h2.366c1.245,0,2.293-0.16,3.147-0.481
	c0.852-0.322,1.566-0.813,2.135-1.463c0.572-0.651,0.998-1.461,1.279-2.428C-0.261,14.503-0.119,13.376-0.119,12.083z
	 M32.335,14.954v7.866c0,0.114-0.038,0.215-0.114,0.31c-0.073,0.093-0.197,0.167-0.369,0.224c-0.174,0.058-0.406,0.104-0.701,0.138
	c-0.292,0.034-0.659,0.051-1.098,0.051c-0.449,0-0.816-0.018-1.105-0.051c-0.288-0.034-0.52-0.081-0.7-0.138
	c-0.18-0.058-0.303-0.131-0.372-0.224c-0.069-0.095-0.104-0.198-0.104-0.31v-7.866l-6.12-12.185
	c-0.219-0.426-0.359-0.759-0.424-0.996c-0.064-0.234-0.03-0.413,0.104-0.536c0.133-0.121,0.376-0.195,0.735-0.223
	c0.357-0.029,0.853-0.045,1.484-0.045c0.532,0,0.955,0.011,1.273,0.035c0.318,0.023,0.566,0.066,0.75,0.131
	c0.186,0.063,0.32,0.146,0.406,0.249c0.087,0.104,0.169,0.237,0.25,0.398l2.489,5.498c0.24,0.53,0.482,1.088,0.716,1.676
	c0.237,0.587,0.477,1.205,0.719,1.852h0.034c0.219-0.625,0.444-1.229,0.673-1.817c0.231-0.588,0.457-1.145,0.675-1.678l2.454-5.459
	c0.057-0.187,0.13-0.333,0.218-0.442c0.084-0.107,0.214-0.198,0.386-0.269c0.173-0.07,0.409-0.115,0.709-0.139
	c0.299-0.023,0.697-0.035,1.192-0.035c0.659,0,1.167,0.016,1.529,0.045c0.364,0.028,0.609,0.103,0.743,0.223
	c0.132,0.121,0.165,0.304,0.096,0.544c-0.072,0.244-0.207,0.572-0.417,0.986L32.335,14.954z M69.91,21.542
	c0,0.346-0.016,0.635-0.045,0.873c-0.03,0.237-0.072,0.432-0.13,0.586c-0.058,0.16-0.129,0.267-0.216,0.34
	c-0.085,0.069-0.187,0.103-0.304,0.103H58.966c-0.379,0-0.698-0.111-0.959-0.337c-0.259-0.226-0.389-0.589-0.389-1.098V1.695
	c0-0.114,0.037-0.219,0.109-0.31c0.076-0.092,0.201-0.167,0.374-0.226c0.172-0.058,0.405-0.103,0.699-0.139
	c0.294-0.036,0.66-0.053,1.098-0.053c0.45,0,0.818,0.018,1.107,0.053c0.286,0.034,0.518,0.081,0.691,0.139
	c0.172,0.058,0.297,0.134,0.371,0.226c0.075,0.09,0.113,0.196,0.113,0.31v17.996h7.037c0.115,0,0.217,0.031,0.302,0.096
	c0.087,0.064,0.158,0.166,0.216,0.308c0.058,0.147,0.101,0.337,0.13,0.573C69.894,20.904,69.91,21.193,69.91,21.542z M94.446,14.954
	v7.866c0,0.114-0.038,0.215-0.114,0.31c-0.074,0.093-0.194,0.167-0.369,0.224c-0.173,0.058-0.405,0.104-0.7,0.138
	c-0.294,0.034-0.661,0.051-1.098,0.051c-0.449,0-0.817-0.018-1.103-0.051c-0.292-0.034-0.524-0.081-0.703-0.138
	c-0.18-0.058-0.302-0.131-0.373-0.224c-0.067-0.095-0.103-0.198-0.103-0.31v-7.866L83.767,2.769c-0.22-0.426-0.36-0.759-0.425-0.996
	c-0.063-0.234-0.029-0.413,0.103-0.536c0.133-0.123,0.377-0.195,0.735-0.223c0.358-0.029,0.852-0.045,1.485-0.045
	c0.531,0,0.955,0.011,1.272,0.035c0.317,0.023,0.567,0.066,0.75,0.131c0.183,0.063,0.319,0.146,0.406,0.249
	c0.087,0.104,0.169,0.237,0.252,0.398l2.486,5.498c0.241,0.53,0.482,1.088,0.717,1.676c0.236,0.587,0.478,1.205,0.716,1.852h0.038
	c0.219-0.625,0.442-1.229,0.672-1.817c0.232-0.588,0.455-1.145,0.674-1.678l2.453-5.459c0.061-0.187,0.131-0.333,0.219-0.442
	c0.087-0.107,0.217-0.198,0.389-0.269s0.408-0.115,0.708-0.139c0.3-0.023,0.696-0.035,1.193-0.035c0.657,0,1.166,0.016,1.528,0.045
	c0.363,0.028,0.611,0.103,0.743,0.223s0.166,0.304,0.094,0.544c-0.068,0.244-0.204,0.572-0.41,0.986L94.446,14.954z M173.466,21.662
	c0,0.334-0.015,0.614-0.044,0.837c-0.031,0.225-0.071,0.406-0.13,0.544c-0.06,0.141-0.129,0.24-0.216,0.306
	c-0.087,0.064-0.18,0.094-0.286,0.094h-11.236c-0.377,0-0.695-0.112-0.958-0.337c-0.259-0.226-0.388-0.59-0.388-1.098V2.509
	c0-0.508,0.129-0.874,0.388-1.099c0.263-0.225,0.581-0.337,0.958-0.337h11.17c0.103,0,0.192,0.031,0.274,0.087
	c0.08,0.058,0.151,0.161,0.21,0.304c0.056,0.145,0.1,0.328,0.129,0.553c0.027,0.223,0.044,0.509,0.044,0.855
	c0,0.323-0.015,0.597-0.044,0.821c-0.029,0.226-0.073,0.406-0.129,0.546c-0.059,0.14-0.128,0.24-0.21,0.303
	c-0.078,0.064-0.172,0.096-0.274,0.096h-7.987v5.462h6.759c0.104,0,0.199,0.03,0.284,0.096c0.087,0.063,0.16,0.161,0.216,0.292
	c0.058,0.133,0.104,0.312,0.13,0.536c0.026,0.226,0.045,0.5,0.045,0.823c0,0.334-0.016,0.608-0.045,0.829
	c-0.026,0.218-0.071,0.395-0.13,0.529c-0.056,0.129-0.129,0.227-0.216,0.284c-0.085,0.06-0.181,0.087-0.284,0.087h-6.759v6.308
	h8.056c0.104,0,0.198,0.034,0.286,0.098c0.085,0.063,0.155,0.163,0.216,0.301c0.061,0.139,0.099,0.319,0.129,0.545
	C173.451,21.047,173.466,21.328,173.466,21.662z M210,22.854c0,0.127-0.021,0.234-0.067,0.321c-0.047,0.085-0.156,0.156-0.33,0.214
	c-0.173,0.06-0.429,0.098-0.759,0.122c-0.337,0.023-0.792,0.032-1.367,0.032c-0.482,0-0.872-0.013-1.157-0.032
	c-0.29-0.023-0.515-0.068-0.684-0.131c-0.167-0.061-0.283-0.143-0.355-0.241c-0.07-0.1-0.127-0.217-0.173-0.355l-2.005-4.996
	c-0.243-0.565-0.479-1.065-0.71-1.503c-0.229-0.439-0.484-0.805-0.769-1.098c-0.281-0.292-0.606-0.516-0.977-0.665
	c-0.368-0.15-0.796-0.225-1.278-0.225h-1.418v8.522c0,0.116-0.036,0.218-0.112,0.31c-0.073,0.093-0.198,0.167-0.371,0.226
	c-0.171,0.057-0.403,0.103-0.691,0.136c-0.285,0.036-0.653,0.051-1.105,0.051c-0.438,0-0.801-0.016-1.099-0.051
	c-0.292-0.034-0.526-0.079-0.697-0.136c-0.174-0.058-0.296-0.133-0.364-0.226c-0.068-0.092-0.103-0.198-0.103-0.31V2.509
	c0-0.508,0.13-0.874,0.387-1.099c0.261-0.225,0.582-0.337,0.961-0.337h5.791c0.587,0,1.07,0.013,1.45,0.036
	c0.381,0.022,0.727,0.051,1.036,0.087c0.899,0.127,1.708,0.346,2.429,0.657c0.724,0.312,1.333,0.717,1.833,1.218
	c0.5,0.5,0.885,1.096,1.151,1.78c0.264,0.686,0.399,1.474,0.399,2.36c0,0.747-0.098,1.431-0.286,2.047
	c-0.191,0.618-0.469,1.167-0.839,1.652c-0.368,0.484-0.824,0.904-1.366,1.261c-0.542,0.357-1.156,0.644-1.848,0.864
	c0.335,0.161,0.647,0.357,0.941,0.587c0.295,0.232,0.572,0.51,0.832,0.837c0.258,0.331,0.503,0.706,0.735,1.125
	c0.228,0.42,0.452,0.896,0.674,1.427l1.883,4.407c0.171,0.438,0.289,0.755,0.348,0.958C209.974,22.582,210,22.738,210,22.854z
	 M204.142,7.677c0-0.737-0.168-1.359-0.501-1.867c-0.335-0.508-0.883-0.864-1.643-1.072c-0.231-0.058-0.491-0.103-0.786-0.139
	c-0.292-0.032-0.698-0.051-1.217-0.051h-2.041v6.345h2.316c0.645,0,1.209-0.078,1.693-0.233c0.484-0.159,0.887-0.376,1.213-0.657
	c0.318-0.28,0.563-0.619,0.725-1.011C204.061,8.597,204.142,8.162,204.142,7.677z M122.683-1.501
	c-0.498-1.646-2.297-2.559-4.014-2.036l0,0c-1.717,0.522-2.702,2.279-2.202,3.926l7.134,23.47c0.499,1.644,2.299,2.558,4.012,2.035
	l0,0c1.717-0.522,2.705-2.28,2.205-3.924L122.683-1.501z M120.63,27.511c-0.635-1.599-2.5-2.358-4.168-1.699l0,0
	c-1.667,0.661-2.506,2.495-1.873,4.095l5.38,13.062c0.632,1.601,2.501,2.359,4.169,1.698l0,0c1.668-0.66,2.505-2.493,1.871-4.091
	L120.63,27.511z M114.177,31.759c-0.588-1.479-2.416-2.144-4.083-1.482l0,0c-1.67,0.662-2.547,2.398-1.958,3.879l3.878,8.69
	c0.585,1.478,2.414,2.142,4.08,1.481l0,0c1.672-0.662,2.545-2.396,1.959-3.88L114.177,31.759z M142.903,2.3
	c0.445-1.524-0.596-3.167-2.314-3.667l0,0c-1.725-0.501-3.481,0.333-3.924,1.855l-6.319,21.749
	c-0.442,1.523,0.597,3.166,2.318,3.668l0,0c1.722,0.5,3.478-0.331,3.923-1.855L142.903,2.3z M123.662,30.015
	c-0.097,1.749,0.605,3.198,2.739,3.198c2.131,0,4.263,0.075,8.147,0.075c3.881,0,3.351,2.895,2.741,5.102
	c-0.609,2.21-2.819,7.538-4.038,9.897c-1.215,2.361-2.893,2.892-4.033,2.819c-1.143-0.076-11.118-0.076-13.021-0.154
	c-1.902-0.078-2.588,1.374-2.588,2.971c0,1.596,0.761,2.663,2.436,2.663c1.677,0,10.582,0.151,14.01,0.078
	c3.425-0.078,5.179-1.067,7.235-3.884c2.054-2.819,4.186-8.375,5.404-12.335c1.218-3.962,1.598-8.222-1.829-10.811
	c-3.425-2.591-10.124-2.134-13.02-2.211C127.849,27.424,123.812,27.196,123.662,30.015z"/>
</svg>
